{
  "configuration": {
    "$mid": 1,
    "fsPath": "/home/puesto4/Escritorio/licitacion.code-workspace",
    "external": "file:///home/puesto4/Escritorio/licitacion.code-workspace",
    "path": "/home/puesto4/Escritorio/licitacion.code-workspace",
    "scheme": "file"
  }
}